%YAML 1.1
%TAG !u! tag:unity3d.com,2011:
--- !u!21 &2100000
Material:
  serializedVersion: 6
  m_ObjectHideFlags: 0
  m_CorrespondingSourceObject: {fileID: 0}
  m_PrefabInstance: {fileID: 0}
  m_PrefabAsset: {fileID: 0}
  m_Name: Bullet
  m_Shader: {fileID: -6465566751694194690, guid: 16e791e4dd4d80b4581a8451eaa5744e,
    type: 3}
  m_ShaderKeywords: ETC1_EXTERNAL_ALPHA
  m_LightmapFlags: 4
  m_EnableInstancingVariants: 0
  m_DoubleSidedGI: 0
  m_CustomRenderQueue: -1
  stringTagMap: {}
  disabledShaderPasses: []
  m_SavedProperties:
    serializedVersion: 3
    m_TexEnvs:
    - Texture2D_14CF763B:
        m_Texture: {fileID: 0}
        m_Scale: {x: 1, y: 1}
        m_Offset: {x: 0, y: 0}
    - Texture2D_837CAB73:
        m_Texture: {fileID: 2800000, guid: aad57019c04c2b44c90924d43f1163be, type: 3}
        m_Scale: {x: 1, y: 1}
        m_Offset: {x: 0, y: 0}
    - _MainTex:
        m_Texture: {fileID: 0}
        m_Scale: {x: 1, y: 1}
        m_Offset: {x: 0, y: 0}
    m_Floats:
    - Vector1_3964B0E6: 2
    - Vector1_403F578D: 0
    - Vector1_4ACE456: 0
    - Vector1_F09A787A: 25
    m_Colors:
    - Color_C8992388: {r: 3.0314326, g: 3.0314326, b: 3.0314326, a: 1}
    - Vector2_7F2EFFBB: {r: 0, g: 0, b: 0, a: 0}
    - Vector2_C0FECC59: {r: 0, g: 0, b: 0, a: 0}
    - _Color: {r: 1182.587, g: 1182.587, b: 1182.587, a: 1}
    - _MainColor: {r: 2.9960785, g: 2.9960785, b: 2.9960785, a: 1}
