%YAML 1.1
%TAG !u! tag:unity3d.com,2011:
--- !u!21 &2100000
Material:
  serializedVersion: 6
  m_ObjectHideFlags: 0
  m_CorrespondingSourceObject: {fileID: 0}
  m_PrefabInstance: {fileID: 0}
  m_PrefabAsset: {fileID: 0}
  m_Name: IcePlat0 03
  m_Shader: {fileID: -6465566751694194690, guid: 820b0d7f471cd284b8c0fb731239a759,
    type: 3}
  m_ShaderKeywords: ETC1_EXTERNAL_ALPHA
  m_LightmapFlags: 4
  m_EnableInstancingVariants: 0
  m_DoubleSidedGI: 0
  m_CustomRenderQueue: -1
  stringTagMap: {}
  disabledShaderPasses: []
  m_SavedProperties:
    serializedVersion: 3
    m_TexEnvs:
    - Texture2D_4A5E3586:
        m_Texture: {fileID: 0}
        m_Scale: {x: 1, y: 1}
        m_Offset: {x: 0, y: 0}
    - Texture2D_E01B8A0F:
        m_Texture: {fileID: 0}
        m_Scale: {x: 1, y: 1}
        m_Offset: {x: 0, y: 0}
    - _CameraTexture:
        m_Texture: {fileID: 8400000, guid: 86e8b4e3b8bb7734ca3f16a7e9e338fc, type: 2}
        m_Scale: {x: 1, y: 1}
        m_Offset: {x: 0, y: 0}
    - _MainTex:
        m_Texture: {fileID: 0}
        m_Scale: {x: 1, y: 1}
        m_Offset: {x: 0, y: 0}
    m_Floats:
    - Boolean_5C594E59: 0
    - Boolean_899C9CB0: 0
    - Boolean_92682684: 0
    - Boolean_BABF7502: 1
    - Vector1_145E3172: 3
    - Vector1_2D327C2C: 0
    - Vector1_449AE5E8: 0.86
    - Vector1_9507BA80: 3
    - Vector1_ADC4E1B4: 0
    - Vector1_B0A430FA: 0
    - Vector1_D2360826: 0
    m_Colors:
    - Color_6796BAB2: {r: 3.5648696, g: 3.5648696, b: 3.5648696, a: 1}
    - Color_92D53AB1: {r: 1, g: 1, b: 1, a: 1}
    - Vector2_482B28EB: {r: 0.005, g: 0.005, b: 0, a: 0}
    - Vector2_9F88E68A: {r: -0.7, g: -0.7, b: 0, a: 0}
    - Vector2_FAAE4C6E: {r: 0.71, g: 0.14, b: 0, a: 0}
