%YAML 1.1
%TAG !u! tag:unity3d.com,2011:
--- !u!114 &11400000
MonoBehaviour:
  m_ObjectHideFlags: 0
  m_CorrespondingSourceObject: {fileID: 0}
  m_PrefabInstance: {fileID: 0}
  m_PrefabAsset: {fileID: 0}
  m_GameObject: {fileID: 0}
  m_Enabled: 1
  m_EditorHideFlags: 0
  m_Script: {fileID: 11500000, guid: 1aba9cc801837c842b9df191db9628f6, type: 3}
  m_Name: CircleBullet
  m_EditorClassIdentifier: Assembly-CSharp::BulletType
  Description: 'BossBullet

'
  initialDmg: 20
  initialFireRate: 0.6
  initialSpeed: 8
  initialBullet: {fileID: 3716535047031957948, guid: 2b84790819ae8414e9e18b239fcf889c,
    type: 3}
  initialTargetLayer:
    serializedVersion: 2
    m_Bits: 512
  dmg: 20
  fireRate: 0.6
  speed: 8
  bullet: {fileID: 0}
  targetLayer:
    serializedVersion: 2
    m_Bits: 512
