%YAML 1.1
%TAG !u! tag:unity3d.com,2011:
--- !u!114 &11400000
MonoBehaviour:
  m_ObjectHideFlags: 0
  m_CorrespondingSourceObject: {fileID: 0}
  m_PrefabInstance: {fileID: 0}
  m_PrefabAsset: {fileID: 0}
  m_GameObject: {fileID: 0}
  m_Enabled: 1
  m_EditorHideFlags: 0
  m_Script: {fileID: 11500000, guid: 1aba9cc801837c842b9df191db9628f6, type: 3}
  m_Name: PlayerBullet
  m_EditorClassIdentifier: 
  Description: PlayerBullet
  initialDmg: 15
  initialFireRate: 0.3
  initialSpeed: 25
  initialBullet: {fileID: 3716535047031957948, guid: 00d98499db995e946bf62c91000964d7,
    type: 3}
  initialTargetLayer:
    serializedVersion: 2
    m_Bits: 1024
  initialbloom: 0.05
  dmg: 15
  fireRate: 0.3
  speed: 25
  bullet: {fileID: 3716535047031957948, guid: 00d98499db995e946bf62c91000964d7, type: 3}
  targetLayer:
    serializedVersion: 2
    m_Bits: 1024
  bloom: 0.05
